\relax 
\providecommand\hyper@newdestlabel[2]{}
\providecommand\zref@newlabel[2]{}
\providecommand\HyperFirstAtBeginDocument{\AtBeginDocument}
\HyperFirstAtBeginDocument{\ifx\hyper@anchor\@undefined
\global\let\oldcontentsline\contentsline
\gdef\contentsline#1#2#3#4{\oldcontentsline{#1}{#2}{#3}}
\global\let\oldnewlabel\newlabel
\gdef\newlabel#1#2{\newlabelxx{#1}#2}
\gdef\newlabelxx#1#2#3#4#5#6{\oldnewlabel{#1}{{#2}{#3}}}
\AtEndDocument{\ifx\hyper@anchor\@undefined
\let\contentsline\oldcontentsline
\let\newlabel\oldnewlabel
\fi}
\fi}
\global\let\hyper@last\relax 
\gdef\HyperFirstAtBeginDocument#1{#1}
\providecommand*\HyPL@Entry[1]{}
\HyPL@Entry{0<</S/D>>}
\HyPL@Entry{8<</S/D>>}
\@writefile{toc}{\contentsline {chapter}{Preface}{13}{section*.3}}
\@writefile{toc}{\contentsline {chapter}{A Conversation}{15}{chapter*.4}}
\newpmemlabel{^_1}{15}
\providecommand*\caption@xref[2]{\@setref\relax\@undefined{#1}}
\@writefile{lof}{\contentsline {figure}{\numberline {1}{\ignorespaces The ass starved to death as he could not decide which heap to start with.}}{15}{figure.caption.5}}
\newlabel{buridan}{{1}{15}{\@tufte@stored@shortcaption }{figure.caption.5}{}}
\newpmemlabel{^_2}{16}
\@writefile{lof}{\contentsline {figure}{\numberline {2}{\ignorespaces The pyramids are symmetric structures.}}{16}{figure.caption.6}}
\newlabel{pyramid}{{2}{16}{\@tufte@stored@shortcaption }{figure.caption.6}{}}
\newpmemlabel{^_3}{18}
\@writefile{lof}{\contentsline {figure}{\numberline {3}{\ignorespaces Looking at symmetries of the letters of alphabet.}}{18}{figure.caption.7}}
\newlabel{alphabets}{{3}{18}{\@tufte@stored@shortcaption }{figure.caption.7}{}}
\@writefile{lof}{\contentsline {figure}{\numberline {4}{\ignorespaces The planes of symmetry for a pyramid.\relax }}{19}{figure.0.4}}
\newlabel{planes-rotation}{{4}{19}{The planes of symmetry for a pyramid.\relax }{figure.0.4}{}}
\@writefile{toc}{\contentsline {part}{I\hspace  {1em}Symmetry Around Us}{23}{part.1}}
\@writefile{toc}{\contentsline {chapter}{\numberline {1}Mirror Symmetry }{27}{chapter.1}}
\@writefile{lof}{\addvspace {10\p@ }}
\@writefile{lot}{\addvspace {10\p@ }}
\@writefile{toc}{\contentsline {section}{\numberline {1}An Object and Its Mirror Twin}{27}{section.1.1}}
\@writefile{lof}{\contentsline {figure}{\numberline {5}{\ignorespaces Looking at symmetry in a mirror reflection of a triangle, its looking glass twin.\relax }}{27}{figure.1.5}}
\newlabel{triangle-mirror}{{5}{27}{Looking at symmetry in a mirror reflection of a triangle, its looking glass twin.\relax }{figure.1.5}{}}
\newpmemlabel{^_4}{27}
\newpmemlabel{^_5}{27}
\newpmemlabel{^_6}{27}
\@writefile{lof}{\contentsline {figure}{\numberline {6}{\ignorespaces Looking at symmetry of a cone in the mirror reflection.}}{28}{figure.caption.8}}
\newlabel{cone-mirror-1}{{6}{28}{\@tufte@stored@shortcaption }{figure.caption.8}{}}
\@writefile{lof}{\contentsline {figure}{\numberline {7}{\ignorespaces Looking at rotation of a cone in the mirror reflection.}}{28}{figure.caption.9}}
\newlabel{cone-mirror-2}{{7}{28}{\@tufte@stored@shortcaption }{figure.caption.9}{}}
\@writefile{lof}{\contentsline {figure}{\numberline {8}{\ignorespaces Looking at spirality of a cone in the mirror reflection.}}{28}{figure.caption.10}}
\newlabel{cone-mirror-3}{{8}{28}{\@tufte@stored@shortcaption }{figure.caption.10}{}}
\newpmemlabel{^_7}{29}
\@writefile{lof}{\contentsline {figure}{\numberline {9}{\ignorespaces Looking at reflection of a text.}}{29}{figure.caption.11}}
\newlabel{mirror-text}{{9}{29}{\@tufte@stored@shortcaption }{figure.caption.11}{}}
\@writefile{toc}{\contentsline {section}{\numberline {2}Mirror Symmetry}{30}{section.1.2}}
\@writefile{lof}{\contentsline {figure}{\numberline {10}{\ignorespaces Examples of mirror-symmetrical objects.\relax }}{30}{figure.1.10}}
\newlabel{mirror-symm-examples}{{10}{30}{Examples of mirror-symmetrical objects.\relax }{figure.1.10}{}}
\@writefile{lof}{\contentsline {figure}{\numberline {11}{\ignorespaces Symmetries of a hexagon.\relax }}{30}{figure.1.11}}
\newlabel{hexagon-symm}{{11}{30}{Symmetries of a hexagon.\relax }{figure.1.11}{}}
\newpmemlabel{^_8}{30}
\@writefile{lof}{\contentsline {figure}{\numberline {12}{\ignorespaces Looking at reflection of a text.}}{31}{figure.caption.12}}
\newlabel{mirror-text2}{{12}{31}{\@tufte@stored@shortcaption }{figure.caption.12}{}}
\@writefile{toc}{\contentsline {section}{\numberline {3}Enantiomorphs}{31}{section.1.3}}
\newpmemlabel{^_9}{31}
\@writefile{lof}{\contentsline {figure}{\numberline {13}{\ignorespaces Examples of three-dimensional enantiomorphs.}}{32}{figure.caption.13}}
\newlabel{enantiomorphs-3d}{{13}{32}{\@tufte@stored@shortcaption }{figure.caption.13}{}}
\newpmemlabel{^_10}{32}
\@writefile{lof}{\contentsline {figure}{\numberline {14}{\ignorespaces Examples of two-dimensional enantiomorphs.}}{32}{figure.caption.14}}
\newlabel{enantiomorphs-2d}{{14}{32}{\@tufte@stored@shortcaption }{figure.caption.14}{}}
\@writefile{lof}{\contentsline {figure}{\numberline {15}{\ignorespaces Coinciding two-dimensional enantiomorphs via turning in three-dimensional space.\relax }}{33}{figure.1.15}}
\newlabel{folding}{{15}{33}{Coinciding two-dimensional enantiomorphs via turning in three-dimensional space.\relax }{figure.1.15}{}}
\@writefile{toc}{\contentsline {chapter}{\numberline {2}Other Kinds of Symmetry }{35}{chapter.2}}
\@writefile{lof}{\addvspace {10\p@ }}
\@writefile{lot}{\addvspace {10\p@ }}
\@writefile{toc}{\contentsline {section}{\numberline {4}Rotational Symmetry}{35}{section.2.4}}
\@writefile{lof}{\contentsline {figure}{\numberline {16}{\ignorespaces Symmetries axes of various three-dimensional solids.\relax }}{35}{figure.1.16}}
\newlabel{regular-symm}{{16}{35}{Symmetries axes of various three-dimensional solids.\relax }{figure.1.16}{}}
\newpmemlabel{^_11}{35}
\@writefile{lof}{\contentsline {figure}{\numberline {17}{\ignorespaces The 13 axes of symmetry in a cube.}}{36}{figure.caption.15}}
\newlabel{cube-symmetry}{{17}{36}{\@tufte@stored@shortcaption }{figure.caption.15}{}}
\@writefile{lof}{\contentsline {figure}{\numberline {18}{\ignorespaces The infinite two-fold axes of symmetry, and one three-fold axes of symmetry for a cylinder.\relax }}{36}{figure.1.18}}
\newlabel{cylinder-symm}{{18}{36}{The infinite two-fold axes of symmetry, and one three-fold axes of symmetry for a cylinder.\relax }{figure.1.18}{}}
\newpmemlabel{^_12}{36}
\@writefile{lof}{\contentsline {figure}{\numberline {19}{\ignorespaces The axes of symmetry of a body composed of two identical regular pyramids..}}{36}{figure.caption.16}}
\newlabel{regular-pyramid}{{19}{36}{\@tufte@stored@shortcaption }{figure.caption.16}{}}
\@writefile{toc}{\contentsline {section}{\numberline {5}Mirror-Rotational Symmetry}{37}{section.2.5}}
\@writefile{lof}{\contentsline {figure}{\numberline {20}{\ignorespaces Combining two squares to create a composite.\relax }}{37}{figure.1.20}}
\newlabel{two-squares}{{20}{37}{Combining two squares to create a composite.\relax }{figure.1.20}{}}
\@writefile{lof}{\contentsline {figure}{\numberline {21}{\ignorespaces Axes of symmetry for the composite 3-d object created from inscribed square.\relax }}{37}{figure.1.21}}
\newlabel{two-squares2}{{21}{37}{Axes of symmetry for the composite 3-d object created from inscribed square.\relax }{figure.1.21}{}}
\@writefile{toc}{\contentsline {section}{\numberline {6}Translational Symmetry}{37}{section.2.6}}
\newpmemlabel{^_13}{37}
\@writefile{lof}{\contentsline {figure}{\numberline {22}{\ignorespaces  A translation along line gives rise to translational symmetry.}}{38}{figure.caption.17}}
\newlabel{trans-01}{{22}{38}{\@tufte@stored@shortcaption }{figure.caption.17}{}}
\newpmemlabel{^_14}{38}
\@writefile{lof}{\contentsline {figure}{\numberline {23}{\ignorespaces  Different ways of choosing the unit cell in a lattice.}}{38}{figure.caption.18}}
\newlabel{trans-02}{{23}{38}{\@tufte@stored@shortcaption }{figure.caption.18}{}}
\@writefile{lof}{\contentsline {figure}{\numberline {24}{\ignorespaces Vectors defining a three-dimensional unit lattice.\relax }}{39}{figure.1.24}}
\newlabel{cube-2}{{24}{39}{Vectors defining a three-dimensional unit lattice.\relax }{figure.1.24}{}}
\@writefile{toc}{\contentsline {section}{\numberline {7}Bad Neighbours}{39}{section.2.7}}
\newpmemlabel{^_15}{39}
\@writefile{lof}{\contentsline {figure}{\numberline {25}{\ignorespaces Five types of plane lattices (five types of translational symmetry in a plane).}}{40}{figure.caption.19}}
\newlabel{trans-03}{{25}{40}{\@tufte@stored@shortcaption }{figure.caption.19}{}}
\@writefile{lof}{\contentsline {figure}{\numberline {26}{\ignorespaces Vectors defining a three-dimensional unit lattice.\relax }}{40}{figure.1.26}}
\newlabel{quad}{{26}{40}{Vectors defining a three-dimensional unit lattice.\relax }{figure.1.26}{}}
\@writefile{toc}{\contentsline {section}{\numberline {8}Glide Plane (Axis) of Symmetry}{41}{section.2.8}}
\newpmemlabel{^_16}{41}
\@writefile{lof}{\contentsline {figure}{\numberline {27}{\ignorespaces An example of glide symmetry with period $2a$.}}{41}{figure.caption.20}}
\newlabel{glide-symm}{{27}{41}{\@tufte@stored@shortcaption }{figure.caption.20}{}}
\@writefile{toc}{\contentsline {chapter}{\numberline {3}Borders and Patterns}{43}{chapter.3}}
\@writefile{lof}{\addvspace {10\p@ }}
\@writefile{lot}{\addvspace {10\p@ }}
\@writefile{toc}{\contentsline {section}{\numberline {9}Borders}{43}{section.3.9}}
\newpmemlabel{^_17}{44}
\newlabel{sub@border-01}{{(a)}{a}{Subfigure 3 28a\relax }{subfigure.28.1}{}}
\newlabel{sub@border-02}{{(b)}{b}{Subfigure 3 28b\relax }{subfigure.28.2}{}}
\@writefile{lof}{\contentsline {figure}{\numberline {28}{\ignorespaces The seven border types and their schematics showing translational symmetry.}}{44}{figure.caption.21}}
\newlabel{borders}{{28}{44}{\@tufte@stored@shortcaption }{figure.caption.21}{}}
\@writefile{toc}{\contentsline {section}{\numberline {10}Decorative Patterns}{45}{section.3.10}}
\newpmemlabel{^_18}{45}
\@writefile{lof}{\contentsline {figure}{\numberline {30}{\ignorespaces \emph  {Flying Birds} by Dutch artist M. C. Escher.}}{45}{figure.caption.22}}
\newlabel{escher-01}{{30}{45}{\@tufte@stored@shortcaption }{figure.caption.22}{}}
\newpmemlabel{^_19}{45}
\@writefile{lof}{\contentsline {figure}{\numberline {31}{\ignorespaces A characteristic Egyptian ornamental decoration.}}{46}{figure.caption.23}}
\newlabel{tess-02}{{31}{46}{\@tufte@stored@shortcaption }{figure.caption.23}{}}
\newpmemlabel{^_20}{46}
\@writefile{lof}{\contentsline {figure}{\numberline {32}{\ignorespaces \emph  {Lizards} by Dutch artist M. C. Escher.}}{46}{figure.caption.24}}
\newlabel{escher-02}{{32}{46}{\@tufte@stored@shortcaption }{figure.caption.24}{}}
\newpmemlabel{^_21}{47}
\@writefile{lof}{\contentsline {figure}{\numberline {33}{\ignorespaces Finding the unit cell in \emph  {Flying Birds} by Dutch artist M. C. Escher.}}{47}{figure.caption.25}}
\newlabel{tess-04}{{33}{47}{\@tufte@stored@shortcaption }{figure.caption.25}{}}
\newpmemlabel{^_22}{47}
\@writefile{lof}{\contentsline {figure}{\numberline {34}{\ignorespaces Finding the unit cell in Egyptian ornamental design.}}{48}{figure.caption.26}}
\newlabel{egypt-01}{{34}{48}{\@tufte@stored@shortcaption }{figure.caption.26}{}}
\newpmemlabel{^_23}{48}
\@writefile{lof}{\contentsline {figure}{\numberline {35}{\ignorespaces The 17 types of symmetry plane designs.}}{49}{figure.caption.27}}
\newlabel{17-types}{{35}{49}{\@tufte@stored@shortcaption }{figure.caption.27}{}}
\@writefile{toc}{\contentsline {section}{\numberline {11}Pattern Construction}{49}{section.3.11}}
\newpmemlabel{^_24}{50}
\@writefile{lof}{\contentsline {figure}{\numberline {36}{\ignorespaces Constructing the Egyptian ornamental pattern.}}{50}{figure.caption.28}}
\newlabel{egypt-02}{{36}{50}{\@tufte@stored@shortcaption }{figure.caption.28}{}}
\@writefile{lof}{\contentsline {figure}{\numberline {37}{\ignorespaces Constructing a simplified Egyptian pattern.\relax }}{50}{figure.1.37}}
\newlabel{egypt-03}{{37}{50}{Constructing a simplified Egyptian pattern.\relax }{figure.1.37}{}}
\@writefile{toc}{\contentsline {section}{\numberline {12}The `Lizards' Design}{51}{section.3.12}}
\newpmemlabel{^_25}{51}
\@writefile{lof}{\contentsline {figure}{\numberline {38}{\ignorespaces Constructing the \emph  {Lizard} design by M. C. Escher.}}{51}{figure.caption.29}}
\newlabel{lizard-02}{{38}{51}{\@tufte@stored@shortcaption }{figure.caption.29}{}}
\@writefile{toc}{\contentsline {chapter}{\numberline {4}Regular Polyhedra}{53}{chapter.4}}
\@writefile{lof}{\addvspace {10\p@ }}
\@writefile{lot}{\addvspace {10\p@ }}
\@writefile{toc}{\contentsline {section}{\numberline {13}The Five Platonic Solids}{53}{section.4.13}}
\newpmemlabel{^_26}{54}
\@writefile{lof}{\contentsline {figure}{\numberline {39}{\ignorespaces The five possible types of regular polyhedra.}}{54}{figure.caption.30}}
\newlabel{regular-poly}{{39}{54}{\@tufte@stored@shortcaption }{figure.caption.30}{}}
\@writefile{toc}{\contentsline {section}{\numberline {14}The Symmetry of the Regular Polyhedra}{54}{section.4.14}}
\@writefile{lof}{\contentsline {figure}{\numberline {40}{\ignorespaces The symmetry of tetrahedron.\relax }}{54}{figure.1.40}}
\newlabel{tetra-symm}{{40}{54}{The symmetry of tetrahedron.\relax }{figure.1.40}{}}
\@writefile{lof}{\contentsline {figure}{\numberline {41}{\ignorespaces The symmetry of octahedron.\relax }}{55}{figure.1.41}}
\newlabel{octa-symm}{{41}{55}{The symmetry of octahedron.\relax }{figure.1.41}{}}
\@writefile{lof}{\contentsline {figure}{\numberline {42}{\ignorespaces The symmetry of dodecahedron.\relax }}{55}{figure.1.42}}
\newlabel{dodeca-symm}{{42}{55}{The symmetry of dodecahedron.\relax }{figure.1.42}{}}
\@writefile{toc}{\contentsline {section}{\numberline {15}The Uses of the Platonic Solids to Explain Some Fundamental Problems}{55}{section.4.15}}
\newpmemlabel{^_27}{56}
\@writefile{lof}{\contentsline {figure}{\numberline {43}{\ignorespaces Scheme of the Solar System based on the regular polyhedra devised by Kepler.}}{57}{figure.caption.31}}
\newlabel{kepler-scheme}{{43}{57}{\@tufte@stored@shortcaption }{figure.caption.31}{}}
\@writefile{toc}{\contentsline {section}{\numberline {16}On the Role of Symmetry in the Cognition of Nature}{57}{section.4.16}}
\@writefile{toc}{\contentsline {chapter}{\numberline {5}Symmetry In Nature}{59}{chapter.5}}
\@writefile{lof}{\addvspace {10\p@ }}
\@writefile{lot}{\addvspace {10\p@ }}
\@writefile{toc}{\contentsline {section}{\numberline {17}From the Concept of Symmetry to the Real Picture of a Symmetrical World}{59}{section.5.17}}
\newpmemlabel{^_28}{60}
\@writefile{lof}{\contentsline {figure}{\numberline {44}{\ignorespaces Symmetry of the Galaxy and the Solar System.}}{60}{figure.caption.32}}
\newlabel{galaxy-symm}{{44}{60}{\@tufte@stored@shortcaption }{figure.caption.32}{}}
\@writefile{toc}{\contentsline {section}{\numberline {18}Symmetry in Inanimate Nature. Crystals}{61}{section.5.18}}
\newpmemlabel{^_29}{61}
\@writefile{lof}{\contentsline {figure}{\numberline {45}{\ignorespaces Snowflakes have six-fold rotational symmetry.}}{61}{figure.caption.33}}
\newlabel{snowflake-symm}{{45}{61}{\@tufte@stored@shortcaption }{figure.caption.33}{}}
\newpmemlabel{^_30}{62}
\@writefile{lof}{\contentsline {figure}{\numberline {46}{\ignorespaces Some naturally grown crystals, notice the plane faces and straight edges.}}{62}{figure.caption.34}}
\newlabel{crystal-symm}{{46}{62}{\@tufte@stored@shortcaption }{figure.caption.34}{}}
\@writefile{lof}{\contentsline {figure}{\numberline {47}{\ignorespaces The symmetry of some common crystals.\relax }}{62}{figure.1.47}}
\newlabel{crystal-symm-01}{{47}{62}{The symmetry of some common crystals.\relax }{figure.1.47}{}}
\newpmemlabel{^_31}{62}
\@writefile{lof}{\contentsline {figure}{\numberline {48}{\ignorespaces The symmetries of crystalline forms of diamond.}}{63}{figure.caption.35}}
\newlabel{crystal-symm-02}{{48}{63}{\@tufte@stored@shortcaption }{figure.caption.35}{}}
\@writefile{toc}{\contentsline {section}{\numberline {19}Symmetry in the World of Plants}{63}{section.5.19}}
\@writefile{lof}{\contentsline {figure}{\numberline {49}{\ignorespaces The conical symmetry of trees.\relax }}{63}{figure.1.49}}
\newlabel{tree-cone}{{49}{63}{The conical symmetry of trees.\relax }{figure.1.49}{}}
\newpmemlabel{^_32}{64}
\@writefile{lof}{\contentsline {figure}{\numberline {50}{\ignorespaces Symmetry displayed in leaves and flowers.}}{64}{figure.caption.36}}
\newlabel{leaves-symm}{{50}{64}{\@tufte@stored@shortcaption }{figure.caption.36}{}}
\@writefile{lof}{\contentsline {figure}{\numberline {51}{\ignorespaces Five-fold rotational symmetry of a flower of \emph  {St. John's wort (Hypericum)}, and mirror symmetry.\relax }}{64}{figure.1.51}}
\newlabel{john-wort}{{51}{64}{Five-fold rotational symmetry of a flower of \emph {St. John's wort (Hypericum)}, and mirror symmetry.\relax }{figure.1.51}{}}
\newpmemlabel{^_33}{64}
\newpmemlabel{^_34}{64}
\@writefile{lof}{\contentsline {figure}{\numberline {52}{\ignorespaces The symmetry of leaves.}}{65}{figure.caption.37}}
\newlabel{leaves-symm-02}{{52}{65}{\@tufte@stored@shortcaption }{figure.caption.37}{}}
\@writefile{lof}{\contentsline {figure}{\numberline {53}{\ignorespaces The symmetry in the silverweed wildflower \emph  {Potentilla anserina}.}}{65}{figure.caption.38}}
\newlabel{plant-symm-01}{{53}{65}{\@tufte@stored@shortcaption }{figure.caption.38}{}}
\@writefile{toc}{\contentsline {section}{\numberline {20}Symmetry in the World of Animals}{66}{section.5.20}}
\newpmemlabel{^_35}{66}
\@writefile{lof}{\contentsline {figure}{\numberline {54}{\ignorespaces The five-fold rotational symmetry in the Starfish and Sea Urchin.}}{66}{figure.caption.39}}
\newlabel{starfish}{{54}{66}{\@tufte@stored@shortcaption }{figure.caption.39}{}}
\newpmemlabel{^_36}{66}
\newpmemlabel{^_37}{66}
\@writefile{lof}{\contentsline {figure}{\numberline {55}{\ignorespaces The Push-Pull, a mythical animal whose front and rear are absolutely symmetrical.}}{67}{figure.caption.40}}
\newlabel{animal-symm-01}{{55}{67}{\@tufte@stored@shortcaption }{figure.caption.40}{}}
\newpmemlabel{^_38}{67}
\@writefile{lof}{\contentsline {figure}{\numberline {56}{\ignorespaces The bilateral plane of symmetry for different animals.}}{68}{figure.caption.41}}
\newlabel{animal-symm-02}{{56}{68}{\@tufte@stored@shortcaption }{figure.caption.41}{}}
\@writefile{lof}{\contentsline {figure}{\numberline {57}{\ignorespaces The bilateral symmetry of a butterfly.}}{69}{figure.caption.42}}
\newlabel{butterfly}{{57}{69}{\@tufte@stored@shortcaption }{figure.caption.42}{}}
\@writefile{toc}{\contentsline {section}{\numberline {21}Inhabitants of Other Worlds}{69}{section.5.21}}
\@writefile{toc}{\contentsline {chapter}{\numberline {6}Order in the World of Atoms}{71}{chapter.6}}
\@writefile{lof}{\addvspace {10\p@ }}
\@writefile{lot}{\addvspace {10\p@ }}
\@writefile{toc}{\contentsline {section}{\numberline {22}Molecules}{71}{section.6.22}}
\@writefile{lof}{\contentsline {figure}{\numberline {58}{\ignorespaces The planes of symmetry of water (\ce {H2O})and carbon dioxide (\ce {CO2}) molecules.\relax }}{71}{figure.1.58}}
\newlabel{water-co2}{{58}{71}{The planes of symmetry of water (\ce {H2O})and carbon dioxide (\ce {CO2}) molecules.\relax }{figure.1.58}{}}
\@writefile{lof}{\contentsline {figure}{\numberline {59}{\ignorespaces The plane of symmetry of the methane molecule (\ce {CH4}).\relax }}{71}{figure.1.59}}
\newlabel{methane-symm}{{59}{71}{The plane of symmetry of the methane molecule (\ce {CH4}).\relax }{figure.1.59}{}}
\pgfsyspdfmark {pgfid1}{12305023}{35725635}
\@writefile{lof}{\contentsline {figure}{\numberline {60}{\ignorespaces The plane of symmetry of the methane molecule (\ce {CH4}).\relax }}{72}{figure.1.60}}
\newlabel{methane-symm-02}{{60}{72}{The plane of symmetry of the methane molecule (\ce {CH4}).\relax }{figure.1.60}{}}
\@writefile{lof}{\contentsline {figure}{\numberline {61}{\ignorespaces The plane of symmetry of the methane molecule (\ce {CH4}).\relax }}{72}{figure.1.61}}
\newlabel{tetra-symm-02}{{61}{72}{The plane of symmetry of the methane molecule (\ce {CH4}).\relax }{figure.1.61}{}}
\@writefile{toc}{\contentsline {section}{\numberline {23}The Puzzle of the Benzene Ring}{72}{section.6.23}}
\pgfsyspdfmark {pgfid2}{25526072}{16455142}
\@writefile{lof}{\contentsline {figure}{\numberline {62}{\ignorespaces The structural symmetry of the benzene molecule (\ce {C6H6}).\relax }}{72}{figure.1.62}}
\newlabel{benzene-01}{{62}{72}{The structural symmetry of the benzene molecule (\ce {C6H6}).\relax }{figure.1.62}{}}
\pgfsyspdfmark {pgfid4}{25591608}{30671663}
\pgfsyspdfmark {pgfid3}{24265123}{30671663}
\@writefile{lof}{\contentsline {figure}{\numberline {63}{\ignorespaces The schematic representation of the collectivization of six electrons by the benzene ring (\ce {C6H6}).\relax }}{73}{figure.1.63}}
\newlabel{benzene-02}{{63}{73}{The schematic representation of the collectivization of six electrons by the benzene ring (\ce {C6H6}).\relax }{figure.1.63}{}}
\@writefile{toc}{\contentsline {section}{\numberline {24}The Crystal Lattice}{73}{section.6.24}}
\@writefile{lof}{\contentsline {figure}{\numberline {64}{\ignorespaces \textsf  {\smaller  Vectors defining a three-dimensional unit lattice.}\relax }}{74}{figure.1.64}}
\newlabel{cube-3}{{64}{74}{\textsf {\smaller Vectors defining a three-dimensional unit lattice.}\relax }{figure.1.64}{}}
\@writefile{toc}{\contentsline {section}{\numberline {25}The Face-Centred Cubic Lattice}{74}{section.6.25}}
\newpmemlabel{^_39}{74}
\@writefile{lof}{\contentsline {figure}{\numberline {65}{\ignorespaces Arranging balls to get a dense packing.}}{75}{figure.caption.43}}
\newlabel{fcc-0}{{65}{75}{\@tufte@stored@shortcaption }{figure.caption.43}{}}
\newpmemlabel{^_40}{75}
\@writefile{lof}{\contentsline {figure}{\numberline {66}{\ignorespaces Cubic unit of the f.c.c. lattice.}}{75}{figure.caption.44}}
\newlabel{fcc-1}{{66}{75}{\@tufte@stored@shortcaption }{figure.caption.44}{}}
\@writefile{lof}{\contentsline {figure}{\numberline {67}{\ignorespaces Face centred cubic cell showing a one-cell rhombohedron-shaped cell.\relax }}{75}{figure.1.67}}
\newlabel{fcc-2}{{67}{75}{Face centred cubic cell showing a one-cell rhombohedron-shaped cell.\relax }{figure.1.67}{}}
\@writefile{lof}{\contentsline {figure}{\numberline {68}{\ignorespaces Face centred cubic cell in common salt \ce {NaCl}.\relax }}{76}{figure.1.68}}
\newlabel{fcc-3}{{68}{76}{Face centred cubic cell in common salt \ce {NaCl}.\relax }{figure.1.68}{}}
\@writefile{toc}{\contentsline {section}{\numberline {26}Polymorphism}{76}{section.6.26}}
\newpmemlabel{^_41}{76}
\@writefile{lof}{\contentsline {figure}{\numberline {69}{\ignorespaces Structure of the diamond lattice.}}{76}{figure.caption.45}}
\newlabel{diamond-01}{{69}{76}{\@tufte@stored@shortcaption }{figure.caption.45}{}}
\@writefile{lof}{\contentsline {figure}{\numberline {70}{\ignorespaces Structure of the graphite lattice.\relax }}{77}{figure.1.70}}
\newlabel{graphite-01}{{70}{77}{Structure of the graphite lattice.\relax }{figure.1.70}{}}
\@writefile{toc}{\contentsline {section}{\numberline {27}The Crystal Lattice and the External Appearance of a Crystal}{77}{section.6.27}}
\newpmemlabel{^_42}{77}
\@writefile{lof}{\contentsline {figure}{\numberline {71}{\ignorespaces Parallel planes in crystal lattice.}}{78}{figure.caption.46}}
\newlabel{diff-01}{{71}{78}{\@tufte@stored@shortcaption }{figure.caption.46}{}}
\@writefile{toc}{\contentsline {section}{\numberline {28}The Experimental Study of Crystal Structures}{78}{section.6.28}}
\newpmemlabel{^_43}{79}
\@writefile{lof}{\contentsline {figure}{\numberline {72}{\ignorespaces Structure of the diamond lattice.}}{79}{figure.caption.47}}
\newlabel{diff-02}{{72}{79}{\@tufte@stored@shortcaption }{figure.caption.47}{}}
\@writefile{lof}{\contentsline {figure}{\numberline {73}{\ignorespaces  Laue pattern of \emph  {zinc blende} (\ce {ZnS}) single crystal for two orientations of the sample relative to the initial beam.\relax }}{79}{figure.1.73}}
\newlabel{diff-03}{{73}{79}{Laue pattern of \emph {zinc blende} (\ce {ZnS}) single crystal for two orientations of the sample relative to the initial beam.\relax }{figure.1.73}{}}
\@writefile{toc}{\contentsline {section}{\numberline {29}The Mysteries of Water}{79}{section.6.29}}
\@writefile{lof}{\contentsline {figure}{\numberline {74}{\ignorespaces Water molecules form tetrahedral structures for interaction.\relax }}{80}{figure.1.74}}
\newlabel{tetra-01}{{74}{80}{Water molecules form tetrahedral structures for interaction.\relax }{figure.1.74}{}}
\@writefile{toc}{\contentsline {section}{\numberline {30}Magnetic Structures}{80}{section.6.30}}
\@writefile{lof}{\contentsline {figure}{\numberline {75}{\ignorespaces Magnetic and anti-ferromagnetic lattices.\relax }}{81}{figure.1.75}}
\newlabel{magnet-01}{{75}{81}{Magnetic and anti-ferromagnetic lattices.\relax }{figure.1.75}{}}
\newpmemlabel{^_44}{81}
\@writefile{lof}{\contentsline {figure}{\numberline {76}{\ignorespaces Structure of an anti-ferromagnet \emph  {manganese oxide} (\ce {MnO}) crystal lattice.}}{81}{figure.caption.48}}
\newlabel{magnet-02}{{76}{81}{\@tufte@stored@shortcaption }{figure.caption.48}{}}
\@writefile{toc}{\contentsline {section}{\numberline {31}Order and Disorder}{82}{section.6.31}}
\newpmemlabel{^_45}{82}
\@writefile{lof}{\contentsline {figure}{\numberline {77}{\ignorespaces Vacancies and interstices in a crystal lattice.}}{82}{figure.caption.49}}
\newlabel{defect-01}{{77}{82}{\@tufte@stored@shortcaption }{figure.caption.49}{}}
\newpmemlabel{^_46}{83}
\@writefile{lof}{\contentsline {figure}{\numberline {78}{\ignorespaces Dislocations in a crystal lattice.}}{83}{figure.caption.50}}
\newlabel{defect-02}{{78}{83}{\@tufte@stored@shortcaption }{figure.caption.50}{}}
\@writefile{toc}{\contentsline {chapter}{\numberline {7}Spirality In Nature}{85}{chapter.7}}
\@writefile{lof}{\addvspace {10\p@ }}
\@writefile{lot}{\addvspace {10\p@ }}
\@writefile{toc}{\contentsline {section}{\numberline {32}The Symmetry and Asymmetry of the Helix}{85}{section.7.32}}
\newpmemlabel{^_47}{85}
\@writefile{lof}{\contentsline {figure}{\numberline {79}{\ignorespaces Construction of a helical line.}}{86}{figure.caption.51}}
\newlabel{helical-01}{{79}{86}{\@tufte@stored@shortcaption }{figure.caption.51}{}}
\@writefile{lof}{\contentsline {figure}{\numberline {80}{\ignorespaces A helical line.\relax }}{86}{figure.1.80}}
\newlabel{helical-02}{{80}{86}{A helical line.\relax }{figure.1.80}{}}
\@writefile{toc}{\contentsline {section}{\numberline {33}Helices in Nature}{87}{section.7.33}}
\newpmemlabel{^_48}{87}
\@writefile{lof}{\contentsline {figure}{\numberline {81}{\ignorespaces Some natural helices.}}{87}{figure.caption.52}}
\newlabel{helical-03}{{81}{87}{\@tufte@stored@shortcaption }{figure.caption.52}{}}
\newpmemlabel{^_49}{88}
\@writefile{lof}{\contentsline {figure}{\numberline {82}{\ignorespaces The handedness in crystals.}}{88}{figure.caption.53}}
\newlabel{crystals-03}{{82}{88}{\@tufte@stored@shortcaption }{figure.caption.53}{}}
\@writefile{toc}{\contentsline {section}{\numberline {34}The DNA Molecule}{89}{section.7.34}}
\@writefile{lof}{\contentsline {figure}{\numberline {83}{\ignorespaces A schematic diagram of the DNA molecule.\relax }}{89}{figure.1.83}}
\newlabel{dna-01}{{83}{89}{A schematic diagram of the DNA molecule.\relax }{figure.1.83}{}}
\newpmemlabel{^_50}{89}
\@writefile{lof}{\contentsline {figure}{\numberline {84}{\ignorespaces The structural formulae for the ATGC nitrogenous bases in DNA molecule.}}{89}{figure.caption.54}}
\newlabel{dna-02}{{84}{89}{\@tufte@stored@shortcaption }{figure.caption.54}{}}
\@writefile{lof}{\contentsline {figure}{\numberline {85}{\ignorespaces A schematic diagram of the structure of the DNA molecule showing the ``ladder''.\relax }}{90}{figure.1.85}}
\newlabel{dna-03}{{85}{90}{A schematic diagram of the structure of the DNA molecule showing the ``ladder''.\relax }{figure.1.85}{}}
\@writefile{lof}{\contentsline {figure}{\numberline {86}{\ignorespaces A schematic diagram of the structure of the DNA molecule showing the double right-handed spiral.\relax }}{90}{figure.1.86}}
\newlabel{dna-04}{{86}{90}{A schematic diagram of the structure of the DNA molecule showing the double right-handed spiral.\relax }{figure.1.86}{}}
\@writefile{toc}{\contentsline {section}{\numberline {35}The Rotation of the Plane of Light Polarization}{91}{section.7.35}}
\newpmemlabel{^_51}{91}
\@writefile{lof}{\contentsline {figure}{\numberline {87}{\ignorespaces The action of \emph  {levorotary} and \emph  {dextrorotary} media on plane-polarized light.}}{91}{figure.caption.55}}
\newlabel{polarisation-01}{{87}{91}{\@tufte@stored@shortcaption }{figure.caption.55}{}}
\@writefile{toc}{\contentsline {section}{\numberline {36}Left and Right Molecules. Stereoisomerism}{92}{section.7.36}}
\pgfsyspdfmark {pgfid5}{9378931}{21667789}
\pgfsyspdfmark {pgfid6}{14761877}{21667789}
\@writefile{lof}{\contentsline {figure}{\numberline {88}{\ignorespaces Ethyl alcohol .\relax }}{92}{figure.1.88}}
\newlabel{ethyl-01}{{88}{92}{Ethyl alcohol .\relax }{figure.1.88}{}}
\pgfsyspdfmark {pgfid7}{12240053}{39535508}
\@writefile{lof}{\contentsline {figure}{\numberline {89}{\ignorespaces Butyl alcohol .\relax }}{93}{figure.1.89}}
\newlabel{butyl-01}{{89}{93}{Butyl alcohol .\relax }{figure.1.89}{}}
\@writefile{toc}{\contentsline {section}{\numberline {37}The Left-Right Asymmetry of Molecules and Life}{93}{section.7.37}}
\@writefile{toc}{\contentsline {part}{II\hspace  {1em}Symmetry Around Us}{97}{part.2}}
\@writefile{toc}{\contentsline {chapter}{\numberline {8}Symmetry and The Relativity of Motion}{101}{chapter.8}}
\@writefile{lof}{\addvspace {10\p@ }}
\@writefile{lot}{\addvspace {10\p@ }}
\@writefile{toc}{\contentsline {section}{\numberline {38}The Relativity Principle}{101}{section.8.38}}
\@writefile{toc}{\contentsline {section}{\numberline {39}The Relativity of Simultaneous Events}{102}{section.8.39}}
\newpmemlabel{^_52}{102}
\@writefile{lof}{\contentsline {figure}{\numberline {90}{\ignorespaces Two inertial frames of reference with relative velocity $v$.}}{102}{figure.caption.56}}
\newlabel{frame-01}{{90}{102}{\@tufte@stored@shortcaption }{figure.caption.56}{}}
\@writefile{toc}{\contentsline {section}{\numberline {40}The Lorentz Transformations}{103}{section.8.40}}
\newlabel{eq-8.1}{{1}{103}{The Lorentz Transformations}{equation.8.40.1}{}}
\@writefile{toc}{\contentsline {section}{\numberline {41}The Relativity of Time Periods}{105}{section.8.41}}
\@writefile{toc}{\contentsline {section}{\numberline {42}The Speed in Various Frames}{106}{section.8.42}}
\@writefile{toc}{\contentsline {chapter}{\numberline {9}The Symmetry of Physical Laws}{109}{chapter.9}}
\@writefile{lof}{\addvspace {10\p@ }}
\@writefile{lot}{\addvspace {10\p@ }}
\@writefile{toc}{\contentsline {section}{\numberline {43}Symmetry Under Spatial Translations}{109}{section.9.43}}
\newpmemlabel{^_53}{110}
\@writefile{lof}{\contentsline {figure}{\numberline {91}{\ignorespaces Spatial transformation.}}{111}{figure.caption.57}}
\newlabel{vector1}{{91}{111}{\@tufte@stored@shortcaption }{figure.caption.57}{}}
\@writefile{toc}{\contentsline {section}{\numberline {44}Rotational Symmetry}{111}{section.9.44}}
\@writefile{toc}{\contentsline {section}{\numberline {45}Symmetry in Time}{112}{section.9.45}}
\@writefile{toc}{\contentsline {section}{\numberline {46}The Symmetry Under Mirror Reflection}{113}{section.9.46}}
\@writefile{toc}{\contentsline {section}{\numberline {47}An Example of Asymmetry of Physical Laws}{114}{section.9.47}}
\@writefile{toc}{\contentsline {chapter}{\numberline {10}Conservation Laws}{117}{chapter.10}}
\@writefile{lof}{\addvspace {10\p@ }}
\@writefile{lot}{\addvspace {10\p@ }}
\@writefile{toc}{\contentsline {section}{\numberline {48}An Unusual Adventure of Baron M\"unchhausen}{117}{section.10.48}}
\@writefile{toc}{\contentsline {section}{\numberline {49}The Problem of Billiard Balls}{118}{section.10.49}}
\@writefile{lof}{\contentsline {figure}{\numberline {92}{\ignorespaces Before and after in a head-on collision.\relax }}{118}{figure.2.92}}
\newlabel{head-on-collision}{{92}{118}{Before and after in a head-on collision.\relax }{figure.2.92}{}}
\@writefile{lof}{\contentsline {figure}{\numberline {93}{\ignorespaces Before and after in a side collision.\relax }}{119}{figure.2.93}}
\newlabel{side-collision}{{93}{119}{Before and after in a side collision.\relax }{figure.2.93}{}}
\@writefile{lof}{\contentsline {figure}{\numberline {94}{\ignorespaces Resolution of vectors in a collision.\relax }}{120}{figure.2.94}}
\newlabel{side-collision2}{{94}{120}{Resolution of vectors in a collision.\relax }{figure.2.94}{}}
\newpmemlabel{^_54}{120}
\@writefile{lof}{\contentsline {figure}{\numberline {95}{\ignorespaces Conservation of momentum on a billiard table.}}{120}{figure.caption.58}}
\newlabel{billiard-table}{{95}{120}{\@tufte@stored@shortcaption }{figure.caption.58}{}}
\@writefile{toc}{\contentsline {section}{\numberline {50}On the Law of Conservation of Momentum}{121}{section.10.50}}
\newlabel{eq-10.1}{{1}{121}{On the Law of Conservation of Momentum}{equation.10.50.1}{}}
\@writefile{toc}{\contentsline {section}{\numberline {51}The Vector Product of Two Vectors}{122}{section.10.51}}
\@writefile{lof}{\contentsline {figure}{\numberline {96}{\ignorespaces Vector addition.\relax }}{123}{figure.2.96}}
\newlabel{vector-addition-1}{{96}{123}{Vector addition.\relax }{figure.2.96}{}}
\@writefile{lof}{\contentsline {figure}{\numberline {97}{\ignorespaces Polar and axial vectors on reflection.\relax }}{123}{figure.2.97}}
\newlabel{vector-addition-2}{{97}{123}{Polar and axial vectors on reflection.\relax }{figure.2.97}{}}
\newpmemlabel{^_55}{123}
\@writefile{toc}{\contentsline {section}{\numberline {52}Kepler's Second Law}{123}{section.10.52}}
\@writefile{lof}{\contentsline {figure}{\numberline {98}{\ignorespaces Direction of resultant vector under mirror reflection.}}{124}{figure.caption.59}}
\newlabel{vector-addition-3}{{98}{124}{\@tufte@stored@shortcaption }{figure.caption.59}{}}
\@writefile{lof}{\contentsline {figure}{\numberline {99}{\ignorespaces Illustration of Kepler's law.\relax }}{124}{figure.2.99}}
\newlabel{keplers-law}{{99}{124}{Illustration of Kepler's law.\relax }{figure.2.99}{}}
\@writefile{toc}{\contentsline {section}{\numberline {53}Conservation of the Intrinsic Angular Momentum of a Rotating Body}{126}{section.10.53}}
\newpmemlabel{^_56}{126}
\@writefile{lof}{\contentsline {figure}{\numberline {100}{\ignorespaces Conservation of momentum of a rotating body.}}{126}{figure.caption.60}}
\newlabel{anugular-momentum}{{100}{126}{\@tufte@stored@shortcaption }{figure.caption.60}{}}
\@writefile{toc}{\contentsline {chapter}{\numberline {11}Symmetry and Conservation Laws}{129}{chapter.11}}
\@writefile{lof}{\addvspace {10\p@ }}
\@writefile{lot}{\addvspace {10\p@ }}
\@writefile{toc}{\contentsline {section}{\numberline {54}The Relationship of Space and Time Symmetry to Conservation Laws}{129}{section.11.54}}
\@writefile{toc}{\contentsline {section}{\numberline {55}The Universal and Fundamental Nature of Conservation Laws}{130}{section.11.55}}
\newlabel{eq-11.1}{{1}{131}{The Universal and Fundamental Nature of Conservation Laws}{equation.11.55.1}{}}
\newlabel{eq-11.2}{{2}{131}{The Universal and Fundamental Nature of Conservation Laws}{equation.11.55.2}{}}
\@writefile{toc}{\contentsline {section}{\numberline {56}The Practical Value of Conservation Laws}{133}{section.11.56}}
\@writefile{toc}{\contentsline {section}{\numberline {57}The Example of the Compton Effect}{134}{section.11.57}}
\@writefile{lof}{\contentsline {figure}{\numberline {101}{\ignorespaces The Compton effect.\relax }}{134}{figure.2.101}}
\newlabel{compton-1}{{101}{134}{The Compton effect.\relax }{figure.2.101}{}}
\@writefile{lof}{\contentsline {figure}{\numberline {102}{\ignorespaces The Compton effect.\relax }}{134}{figure.2.102}}
\newlabel{compton-2}{{102}{134}{The Compton effect.\relax }{figure.2.102}{}}
\@writefile{toc}{\contentsline {section}{\numberline {58}Conservation Laws as Prohibiting Rules}{136}{section.11.58}}
\@writefile{lof}{\contentsline {figure}{\numberline {103}{\ignorespaces The Compton effect.\relax }}{137}{figure.2.103}}
\newlabel{traffic-signs}{{103}{137}{The Compton effect.\relax }{figure.2.103}{}}
\@writefile{toc}{\contentsline {chapter}{\numberline {12}The World of Elementary Particles}{139}{chapter.12}}
\@writefile{lof}{\addvspace {10\p@ }}
\@writefile{lot}{\addvspace {10\p@ }}
\@writefile{toc}{\contentsline {section}{\numberline {59}Some Features of Particles}{139}{section.12.59}}
\@writefile{toc}{\contentsline {section}{\numberline {60}The Zoo of Elementary Particles}{141}{section.12.60}}
\newpmemlabel{^_57}{142}
\newpmemlabel{^_58}{142}
\@writefile{toc}{\contentsline {section}{\numberline {61}Particles and Antiparticles}{142}{section.12.61}}
\@writefile{lof}{\contentsline {figure}{\numberline {104}{\ignorespaces Elementary particles showing leptons and hadrons.}}{143}{figure.caption.61}}
\newlabel{particles1}{{104}{143}{\@tufte@stored@shortcaption }{figure.caption.61}{}}
\@writefile{lof}{\contentsline {figure}{\numberline {105}{\ignorespaces Elementary particles showing leptons and hadrons and antiparticles.}}{144}{figure.caption.62}}
\newlabel{particles2}{{105}{144}{\@tufte@stored@shortcaption }{figure.caption.62}{}}
\@writefile{toc}{\contentsline {section}{\numberline {62}Particles, Antiparticles and Symmetry}{146}{section.12.62}}
\@writefile{toc}{\contentsline {section}{\numberline {63}Neutrino and Antineutrino}{148}{section.12.63}}
\@writefile{lof}{\contentsline {figure}{\numberline {106}{\ignorespaces The symmetry of dodecahedron.\relax }}{148}{figure.2.106}}
\newlabel{neutrino12}{{106}{148}{The symmetry of dodecahedron.\relax }{figure.2.106}{}}
\@writefile{toc}{\contentsline {section}{\numberline {64}The Instability of Particles}{149}{section.12.64}}
\newlabel{decay-exp}{{1}{150}{The Instability of Particles}{equation.12.64.1}{}}
\@writefile{toc}{\contentsline {section}{\numberline {65}Inter-conversions of Particles}{152}{section.12.65}}
\newpmemlabel{^_59}{153}
\@writefile{lof}{\contentsline {figure}{\numberline {107}{\ignorespaces (a) A photograph of a bubble chamber showing tracks of elementary particles. (b) Schematic diagram showing the tracks and identification of particles.}}{154}{figure.caption.63}}
\newlabel{bubble-chamber}{{107}{154}{\@tufte@stored@shortcaption }{figure.caption.63}{}}
\newpmemlabel{^_60}{155}
\@writefile{lof}{\contentsline {figure}{\numberline {108}{\ignorespaces Principal decay schemes for unstable elementary particles.}}{156}{figure.caption.64}}
\newlabel{table-1}{{108}{156}{\@tufte@stored@shortcaption }{figure.caption.64}{}}
\@writefile{toc}{\contentsline {chapter}{\numberline {13}Conservation Laws and Particles}{157}{chapter.13}}
\@writefile{lof}{\addvspace {10\p@ }}
\@writefile{lot}{\addvspace {10\p@ }}
\@writefile{toc}{\contentsline {section}{\numberline {66}Conservation of Energy and Momentum in Particle Reactions}{157}{section.13.66}}
\newlabel{energy-momentum}{{1}{157}{Conservation of Energy and Momentum in Particle Reactions}{equation.13.66.1}{}}
\@writefile{lof}{\contentsline {figure}{\numberline {109}{\ignorespaces Energy momentum relationship for elementary particles.\relax }}{157}{figure.2.109}}
\newlabel{energy-mom}{{109}{157}{Energy momentum relationship for elementary particles.\relax }{figure.2.109}{}}
\@writefile{toc}{\contentsline {section}{\numberline {67}The Conservation of Electric Charge and Stability of the Electron}{159}{section.13.67}}
\@writefile{toc}{\contentsline {section}{\numberline {68}The Three Conservation Laws and Neutrino}{160}{section.13.68}}
\newpmemlabel{^_61}{161}
\@writefile{lof}{\contentsline {figure}{\numberline {110}{\ignorespaces Neutrino creation during neutron decay.}}{161}{figure.caption.65}}
\newlabel{decay-mom}{{110}{161}{\@tufte@stored@shortcaption }{figure.caption.65}{}}
\newpmemlabel{^_62}{162}
\@writefile{lof}{\contentsline {figure}{\numberline {111}{\ignorespaces Angular momentum conservation during neutrino creation.}}{162}{figure.caption.66}}
\newlabel{angular-mom-cons}{{111}{162}{\@tufte@stored@shortcaption }{figure.caption.66}{}}
\@writefile{toc}{\contentsline {section}{\numberline {69}Experimental Determination of Electron Antineutrino}{162}{section.13.69}}
\@writefile{lof}{\contentsline {figure}{\numberline {112}{\ignorespaces Discovering the neutrinos experimentally.\relax }}{162}{figure.2.112}}
\newlabel{neutrino-cons}{{112}{162}{Discovering the neutrinos experimentally.\relax }{figure.2.112}{}}
\@writefile{toc}{\contentsline {section}{\numberline {70}Electron and Muon Numbers. Electron and Muon Neutrinos}{163}{section.13.70}}
\@writefile{toc}{\contentsline {section}{\numberline {71}The Baryon Number and Stability of the Proton}{165}{section.13.71}}
\@writefile{toc}{\contentsline {section}{\numberline {72}Discrete Symmetries. $CPT$-Invariance}{167}{section.13.72}}
\@writefile{toc}{\contentsline {chapter}{\numberline {14}The Ozma Problem}{171}{chapter.14}}
\@writefile{lof}{\addvspace {10\p@ }}
\@writefile{lot}{\addvspace {10\p@ }}
\@writefile{toc}{\contentsline {section}{\numberline {73}What Is the Ozma Problem?}{171}{section.14.73}}
\newpmemlabel{^_63}{172}
\@writefile{lof}{\contentsline {figure}{\numberline {113}{\ignorespaces Asking extra-terrestrials for their sense of left or right.}}{172}{figure.caption.67}}
\newlabel{ozma-1}{{113}{172}{\@tufte@stored@shortcaption }{figure.caption.67}{}}
\@writefile{toc}{\contentsline {section}{\numberline {74}The Ozma Problem Before 1956}{173}{section.14.74}}
\@writefile{toc}{\contentsline {section}{\numberline {75}The Mirror Asymmetry of Beta-Decay Processes}{174}{section.14.75}}
\@writefile{lof}{\contentsline {figure}{\numberline {114}{\ignorespaces The mirror asymmetry in $\beta $-decay of Cobalt (\ce {Co^{60}}).\relax }}{174}{figure.2.114}}
\newlabel{beta-mirror}{{114}{174}{The mirror asymmetry in $\beta $-decay of Cobalt (\ce {Co^{60}}).\relax }{figure.2.114}{}}
\@writefile{toc}{\contentsline {section}{\numberline {76}The Mirror Asymmetry in Decay Processes and the Ozma Problem}{175}{section.14.76}}
\newpmemlabel{^_64}{175}
\@writefile{lof}{\contentsline {figure}{\numberline {115}{\ignorespaces Solving the left-right problem by looking at maximal emission of electrons.}}{176}{figure.caption.68}}
\newlabel{ozma-2}{{115}{176}{\@tufte@stored@shortcaption }{figure.caption.68}{}}
\@writefile{toc}{\contentsline {section}{\numberline {77}The Fall of Charge-Conjugation Symmetry}{176}{section.14.77}}
\@writefile{lof}{\contentsline {figure}{\numberline {116}{\ignorespaces The decay of a pion and its results.\relax }}{176}{figure.2.116}}
\newlabel{cp-violation}{{116}{176}{The decay of a pion and its results.\relax }{figure.2.116}{}}
\newlabel{pion-decay}{{1}{176}{The Fall of Charge-Conjugation Symmetry}{equation.14.77.1}{}}
\@writefile{toc}{\contentsline {section}{\numberline {78}Combined Parity}{177}{section.14.78}}
\newpmemlabel{^_65}{177}
\@writefile{lof}{\contentsline {figure}{\numberline {117}{\ignorespaces Looking at $\beta $-decay with antiparticles and mirror symmetry.}}{178}{figure.caption.69}}
\newlabel{beta-decay2}{{117}{178}{\@tufte@stored@shortcaption }{figure.caption.69}{}}
\@writefile{toc}{\contentsline {section}{\numberline {79}Combined Parity and the Ozma Problem}{179}{section.14.79}}
\@writefile{toc}{\contentsline {section}{\numberline {80}The Solution to the Ozma Problem}{180}{section.14.80}}
\@writefile{toc}{\contentsline {chapter}{\numberline {15}Fermions and Bosons}{183}{chapter.15}}
\@writefile{lof}{\addvspace {10\p@ }}
\@writefile{lot}{\addvspace {10\p@ }}
\@writefile{toc}{\contentsline {section}{\numberline {81}The Periodic Table and the Pauli Principle}{183}{section.15.81}}
\@writefile{toc}{\contentsline {section}{\numberline {82}Commutative Symmetry. Fermions and Bosons}{184}{section.15.82}}
\@writefile{toc}{\contentsline {section}{\numberline {83}Symmetrical and Antisymmetrical Wave Functions}{185}{section.15.83}}
\@writefile{toc}{\contentsline {section}{\numberline {84}The Superfluidity of Liquid Helium. Superconductivity}{187}{section.15.84}}
\@writefile{toc}{\contentsline {section}{\numberline {85}Induced Light Generation and Lasers}{188}{section.15.85}}
\@writefile{toc}{\contentsline {chapter}{\numberline {16}The Symmetry of Various Interactions}{189}{chapter.16}}
\@writefile{lof}{\addvspace {10\p@ }}
\@writefile{lot}{\addvspace {10\p@ }}
\@writefile{toc}{\contentsline {section}{\numberline {86}The Principal Types of Interactions}{189}{section.16.86}}
\@writefile{toc}{\contentsline {section}{\numberline {87}Isotopic Invariance of Strong Interactions. The Isotopic Spin (Isospin)}{191}{section.16.87}}
\newpmemlabel{^_66}{191}
\@writefile{lof}{\contentsline {figure}{\numberline {118}{\ignorespaces Some examples of isotpoic doublets.}}{191}{figure.caption.70}}
\newlabel{isotopic-doublet}{{118}{191}{\@tufte@stored@shortcaption }{figure.caption.70}{}}
\newpmemlabel{^_67}{193}
\@writefile{lof}{\contentsline {figure}{\numberline {119}{\ignorespaces Table showing isotopic multiplets and values of isospin.}}{193}{figure.caption.71}}
\newlabel{iso-multi}{{119}{193}{\@tufte@stored@shortcaption }{figure.caption.71}{}}
\@writefile{toc}{\contentsline {section}{\numberline {88}Strangeness Conservation in Strong and Electromagnetic Interactions}{194}{section.16.88}}
\newpmemlabel{^_68}{195}
\@writefile{lof}{\contentsline {figure}{\numberline {120}{\ignorespaces Table showing strangeness for mesons and baryons.}}{195}{figure.caption.72}}
\newlabel{strangeness}{{120}{195}{\@tufte@stored@shortcaption }{figure.caption.72}{}}
\@writefile{toc}{\contentsline {section}{\numberline {89}Interactions and Conservations}{197}{section.16.89}}
\newpmemlabel{^_69}{197}
\@writefile{lof}{\contentsline {figure}{\numberline {121}{\ignorespaces Table showing interactions and quantities that are conserved in them.}}{198}{figure.caption.73}}
\newlabel{interactions2}{{121}{198}{\@tufte@stored@shortcaption }{figure.caption.73}{}}
\@writefile{toc}{\contentsline {section}{\numberline {90}A Curious Formula}{198}{section.16.90}}
\@writefile{toc}{\contentsline {section}{\numberline {91}The Unitary Symmetry of Strong Interactions}{199}{section.16.91}}
\newpmemlabel{^_70}{199}
\newpmemlabel{^_71}{199}
\@writefile{lof}{\contentsline {figure}{\numberline {122}{\ignorespaces Arrangement of baryons to reveal concealed symmetry.}}{200}{figure.caption.74}}
\newlabel{eight-baryons}{{122}{200}{\@tufte@stored@shortcaption }{figure.caption.74}{}}
\@writefile{lof}{\contentsline {figure}{\numberline {123}{\ignorespaces Arrangement of mesons to reveal concealed symmetry.}}{200}{figure.caption.75}}
\newlabel{eight-mesons}{{123}{200}{\@tufte@stored@shortcaption }{figure.caption.75}{}}
\newpmemlabel{^_72}{200}
\@writefile{lof}{\contentsline {figure}{\numberline {124}{\ignorespaces Arrangement of resonances to reveal concealed symmetry.}}{201}{figure.caption.76}}
\newlabel{ten-resonances}{{124}{201}{\@tufte@stored@shortcaption }{figure.caption.76}{}}
\@writefile{toc}{\contentsline {chapter}{\numberline {17}Quark-Lepton Symmetry}{203}{chapter.17}}
\@writefile{lof}{\addvspace {10\p@ }}
\@writefile{lot}{\addvspace {10\p@ }}
\@writefile{toc}{\contentsline {section}{\numberline {92}Quarks}{203}{section.17.92}}
\newpmemlabel{^_73}{203}
\@writefile{lof}{\contentsline {figure}{\numberline {125}{\ignorespaces Supermultiplet with three particles.}}{204}{figure.caption.77}}
\newlabel{three-supermultiplet}{{125}{204}{\@tufte@stored@shortcaption }{figure.caption.77}{}}
\newpmemlabel{^_74}{204}
\newpmemlabel{^_75}{204}
\@writefile{lof}{\contentsline {figure}{\numberline {126}{\ignorespaces Table showing varieties of quarks and their properties.}}{205}{figure.caption.78}}
\newlabel{quarks-anti-quarks}{{126}{205}{\@tufte@stored@shortcaption }{figure.caption.78}{}}
\@writefile{lof}{\contentsline {figure}{\numberline {127}{\ignorespaces Quark composition of baryons.}}{205}{figure.caption.79}}
\newlabel{quark-structure}{{127}{205}{\@tufte@stored@shortcaption }{figure.caption.79}{}}
\@writefile{lof}{\contentsline {figure}{\numberline {128}{\ignorespaces The colours of quarks.\relax }}{205}{figure.2.128}}
\newlabel{baryon-colours}{{128}{205}{The colours of quarks.\relax }{figure.2.128}{}}
\@writefile{toc}{\contentsline {section}{\numberline {93}The Charmed World}{207}{section.17.93}}
\@writefile{lof}{\contentsline {figure}{\numberline {129}{\ignorespaces The positronium and charmonium.\relax }}{207}{figure.2.129}}
\newlabel{charmonium}{{129}{207}{The positronium and charmonium.\relax }{figure.2.129}{}}
\newpmemlabel{^_76}{208}
\@writefile{toc}{\contentsline {section}{\numberline {94}Quark-Lepton Symmetry}{208}{section.17.94}}
\@writefile{lof}{\contentsline {figure}{\numberline {130}{\ignorespaces A polyhedron corresponding to the meson supermultiplet consisting of fifteen mesons.}}{209}{figure.caption.80}}
\newlabel{meson-multiplet-polyhedron}{{130}{209}{\@tufte@stored@shortcaption }{figure.caption.80}{}}
\@writefile{toc}{\contentsline {section}{\numberline {95}A New Discovery}{210}{section.17.95}}
\newlabel{conversation}{{95}{213}{A Conversation Between the Author and the Reader About the Role of Symmetry}{chapter*.81}{}}
\@writefile{toc}{\contentsline {chapter}{A Conversation Between the Author and the Reader About the Role of Symmetry}{213}{chapter*.81}}
\@writefile{toc}{\contentsline {section}{The Ubiquitous Symmetry}{213}{section*.82}}
\@writefile{toc}{\contentsline {section}{The Development of the Concept of Symmetry}{215}{section*.82}}
\@writefile{toc}{\contentsline {section}{Symmetry-Asymmetry}{217}{Item.48}}
\@writefile{toc}{\contentsline {section}{On the Role of Symmetry in the Scientific Quest for Knowledge}{219}{Item.48}}
\@writefile{toc}{\contentsline {section}{Symmetry in Creative Arts}{222}{Item.48}}
\newpmemlabel{^_77}{223}
\@writefile{lof}{\contentsline {figure}{\numberline {131}{\ignorespaces Symmetry in the building of the Council of Mutual Economic Cooperation in Moscow.}}{223}{figure.caption.83}}
\newlabel{symmetric-building}{{131}{223}{\@tufte@stored@shortcaption }{figure.caption.83}{}}
\newpmemlabel{^_78}{223}
\@writefile{lof}{\contentsline {figure}{\numberline {132}{\ignorespaces Cathedral of St. Basil the Blessed on Red Square in Moscow.}}{224}{figure.caption.84}}
\newlabel{moscow}{{132}{224}{\@tufte@stored@shortcaption }{figure.caption.84}{}}
\newpmemlabel{^_79}{227}
\@writefile{lof}{\contentsline {figure}{\numberline {133}{\ignorespaces \emph  {Madonna Litta} by Leonardo da Vinci.}}{228}{figure.caption.85}}
\newlabel{madonna}{{133}{228}{\@tufte@stored@shortcaption }{figure.caption.85}{}}
\@writefile{toc}{\contentsline {chapter}{Literature}{231}{chapter*.86}}
\ttl@finishall
